package hk.org.ha.fmk.pms.audit

import hk.org.ha.fmk.pms.audit.entity.AuditLog;
import hk.org.ha.fmk.pms.audit.type.LogType;

rule "Default TimingFilter"
   activation-group "audit"
   salience -1
   when
      a : AuditLog(logType == LogType.TimingFilter)
   then
      a.setAuditable(true);
      a.setDisableJdbcLog(true);
end

rule "Default Others"
   activation-group "audit"
   salience -2
   when
      a : AuditLog(logType != LogType.TimingFilter)
   then
      a.setAuditable(true);
      a.setDisableJdbcLog(false);
end